out.vcd
$version 1 $end
$comment
	btko csv to vcd converter - serial sniffer output
	use vcd2wlf for modelsim
$end
$timescale 100ns $end
$scope module top $end
$var wire 6 ! head[5:0] $end
$var wire 1 $ SnsFltEnR $end
$var wire 1 % MwinOpen $end
$var wire 2 & mode[1:0] $end
$var wire 2 ' dfctl[1:0] $end
$var wire 1 6 fltamux $end
$var wire 1 7 tmux $end
$var wire 1 8 digon $end
$var wire 10 9 adc[9:0] $end
	$scope module writer $end
		$var wire 1 ) wtroff $end
		$var wire 7 + iw[6:0] $end
		$var wire 5 , os[4:0] $end
		$var wire 5 - dur[4:0] $end
		$var wire 3 . iwtr[2:0] $end
		$var wire 3 / iwtf[2:0] $end
		$var wire 3 0 ostr[2:0] $end
		$var wire 5 3 pdw[4:0] $end
	$upscope $end
	$scope module pdw $end
		$var wire 1 1 patpolEN $end
		$var wire 1 2 patpoldet $end
	$upscope $end
	$scope module heater $end
		$var wire 1 ( htren $end
		$var wire 8 4 wht_w[7:0] $end
		$var wire 8 5 wht_r[7:0] $end
	$upscope $end
	$scope module reader $end
		$var wire 1 " EnRdB $end
		$var wire 1 # EnRdA $end
		$var wire 1 * rdivbias $end
		$var wire 4 < RdGainB[3:0] $end
		$var wire 4 : RdGainA[3:0] $end
		$var wire 8 ; RdBiasA[7:0] $end
		$var wire 8 = RdBiasB[7:0] $end
	$upscope $end
$upscope $end
$enddefinitions $end
#1479
b01 &
b10 '
0(
0)
0*
#1496
0%
#1514
b00110011 4
b01000010 5
#1540
b000000 !
0"
0#
#1549
b0110 :
b10010000 ;
#1557
b0110 <
b01111111 =
#1575
b10 &
1(
1)
1*
#1583
b1111010 +
b10000 ,
#1592
b10010 -
b111 .
b110 /
b111 0
#1601
b00111 3
#1636
0$
#125569
01
02
#125781
06
07
08
#281376
b1000000000 9
#21784153994
b1011111111 9
#21784320602
b1000000000 9
#21785320249
b1011111111 9
#86575243118
b1000000000 9
#86576076158
b1011111111 9
#86576909196
b1000000000 9
#86577742236
b1011111111 9
#86578575275
b1000000000 9
#258985592974
b01 &
#259019147404
0(
#259035924619
0)
#259052701834
0*
#259086256299
b00101110 4
#259119810755
b000001 !
#259237251295
b10 &
#259270805725
1(
#259287582940
1)
#259304360155
1*
#259321137378
b1111001 +
#259337914593
b10001 ,
#259354691817
b01110 -
#290952029302
b1011111111 9
#290952195910
b1000000000 9
#290952362518
b1011111111 9
#290952529125
b1000000000 9
#290952862343
b1011111111 9
#349570602772
b1000000000 9
#349571435811
b1011111111 9
#349572268851
b1000000000 9
#349573101891
b1011111111 9
#349573934929
b1000000000 9
#505975489719
b01 &
0(
0)
0*
#505975489753
b00110101 4
b01000011 5
#505975489780
b000010 !
1"
1#
#505975489788
b0111 :
#505975489797
b1001 <
#505975489814
b10 &
1(
1)
1*
#505975489823
b1111111 +
b10010 ,
#505975489832
b01010 -
#505975489840
b01000 3
#541298701634
b1011111111 9
#542272113320
b1000000000 9
#544638533674
b1011111111 9
b00 '
b10 '
#592953314718
b1000000000 9
#595319735072
b1011111111 9
#597702932641
b1000000000 9
#600102907425
b1011111111 9
#601999399151
b1000000000 9
#760078842036
b01 &
0(
0)
0*
#760078842071
b00110110 4
b01000100 5
#760078842097
b000011 !
#760078842115
b1000 <
#760078842132
b10 &
1(
1)
1*
#760078842141
b1111100 +
b10001 ,
#760078842149
b01011 -
#760078842158
b00111 3
#780033125442
b1011111111 9
#780989759912
b1000000000 9
#781459688540
b1011111111 9
#782349214151
b1000000000 9
#784749188936
b1011111111 9
#841153419948
b1000000000 9
#843033134459
b1011111111 9
#845903037872
b1000000000 9
#848303012657
b1011111111 9
#850702987441
b1000000000 9
#1013831288903
b01 &
0(
0)
0*
#1013831288938
b00101111 4
b00111010 5
#1013831288964
b000100 !
0"
0#
#1013831288973
b0110 :
#1013831288999
b10 &
1(
1)
1*
b10000 ,
#1013831289016
b01100 -
#1013831289025
b01000 3
#1033335336672
b1011111111 9
#1033687824794
b1000000000 9
#1034157753421
b1011111111 9
#1035097610676
b1000000000 9
#1035919944121
b1011111111 9
#1092138542813
b1000000000 9
#1092138709422
b1011111111 9
#1093280726295
b1000000000 9
#1095663923864
b1011111111 9
#1098047121435
b1000000000 9
#1100430319002
b1011111111 9
#1102813516573
b1000000000 9
#1257414867681
b01 &
#1257448422111
0(
#1257465199326
0)
#1257481976541
0*
#1257515617597
b10 &
#1257549172027
1(
#1257565949242
1)
#1257582726457
1*
#1263507538884
b01 &
#1263541093314
0(
#1263557870529
0)
#1263574647744
0*
#1263608202209
b00111001 4
#1263624979424
b01000110 5
#1263641756665
b000101 !
#1263692088318
b0101 :
#1263725642757
b0110 <
#1263759197205
b10 &
#1263792751635
1(
#1263809528850
1)
#1263826306065
1*
#1263843083288
b1111111 +
#1263859860503
b01111 ,
#1263876637727
b01101 -
#1263943746596
b00111 3
#1287071256420
b1011111111 9
#1287071423027
b1000000000 9
#1287071922851
b1011111111 9
#1345619972005
b1000000000 9
#1345620805045
b1011111111 9
#1345621638084
b1000000000 9
#1345622471122
b1011111111 9
#1345623304160
b1000000000 9
#1504843514585
b01 &
#1504877069015
0(
#1504893846230
0)
#1504910623445
0*
#1504944177910
b00101110 4
#1504960955125
b00111101 5
#1504977732366
b000110 !
#1504994509581
1"
#1505011286796
1#
#1505061618458
b0111 <
#1505095172905
b10 &
#1505128727335
1(
#1505145504550
1)
#1505162281765
1*
#1505179058989
b1111011 +
#1505195836204
b10010 ,
#1505212613428
b01111 -
#1505279722297
b00110 3
#1540503853446
b1011111111 9
#1540504186663
b1000000000 9
#1540504353270
b1011111111 9
#1540504519878
b1000000000 9
#1540505352918
b1011111111 9
#1540506185956
b1000000000 9
#1540506685781
b1011111111 9
#1599239201000
b1000000000 9
#1599240034040
b1011111111 9
#1599240867077
b1000000000 9
#1599241700118
b1011111111 9
#1599242533156
b1000000000 9
#1756012519844
b01 &
0(
0)
0*
#1756012519879
b00110010 4
b00111111 5
#1756012519905
b000111 !
#1756012519913
b0110 :
#1756012519922
b0110 <
#1756012519940
b10 &
1(
1)
1*
#1756012519948
b1111100 +
b10000 ,
#1756012519957
b01010 -
#1756012519966
b01010 3
#1795044663008
b1011111111 9
#1795045496047
b1000000000 9
#1795046329086
b1011111111 9
#1795047495340
b1000000000 9
#1795047661949
b1011111111 9
#1844936918779
b1000000000 9
#1846866964936
b1011111111 9
#1849266939721
b1000000000 9
#1851650137289
b1011111111 9
#1853832008278
b1000000000 9
#2009747690088
b01 &
0(
0)
0*
#2009747690149
b001000 !
0"
0#
#2009747690166
b0101 <
#2009747690184
b10 &
1(
1)
1*
#2009747690193
b1110011 +
b10001 ,
#2009747690201
b10000 -
#2009747690210
b00111 3
#2041969200171
b1011111111 9
#2042455906014
b1000000000 9
#2044385952171
b1011111111 9
#2046785926955
b1000000000 9
#2048984575159
b1011111111 9
#2093002806387
b1000000000 9
#2095386003957
b1011111111 9
#2097785978742
b1000000000 9
#2100622327722
b1011111111 9
#2101092256351
b1000000000 9
#2106328580115
b1011111111 9
#2106798508744
b1000000000 9
#2263918567751
b01 &
0(
0)
0*
#2263918567786
b00101101 4
b01000001 5
#2263918567812
b001001 !
#2263918567820
b0101 :
#2263918567829
b0110 <
#2263918567847
b10 &
1(
1)
1*
#2263918567855
b1111101 +
b10000 ,
#2263918567864
b01101 -
#2283368868679
b1011111111 9
#2283369201895
b1000000000 9
#2283371701012
b1011111111 9
#2283371867620
b1000000000 9
#2283539972985
b1011111111 9
#2284009901613
b1000000000 9
#2284513384670
b1011111111 9
#2341955720415
b1000000000 9
#2341956553455
b1011111111 9
#2341957386495
b1000000000 9
#2343535777566
b1011111111 9
#2344005706195
b1000000000 9
