out.vcd
$version 1.0 $end
$comment
	btko csv to vcd converter - serial sniffer output
	use vcd2wlf for modelsim
$end
$timescale 100ns $end
$scope module top $end
$var wire 6 ! head[5:0] $end
$var wire 1 $ SnsFltEnR $end
$var wire 1 % MwinOpen $end
$var wire 2 & mode[1:0] $end
$var wire 2 ' dfctl[1:0] $end
$var wire 1 6 fltamux $end
$var wire 1 7 tmux $end
$var wire 1 8 digon $end
$var wire 10 9 adc[9:0] $end
	$scope module writer $end
		$var wire 1 ) wtroff $end
		$var wire 7 + iw[6:0] $end
		$var wire 5 , os[4:0] $end
		$var wire 5 - dur[4:0] $end
		$var wire 3 . iwtr[2:0] $end
		$var wire 3 / iwtf[2:0] $end
		$var wire 3 0 ostr[2:0] $end
		$var wire 5 3 pdw[4:0] $end
	$upscope $end
	$scope module pdw $end
		$var wire 1 1 PDW_en $end
		$var wire 1 2 patpoldet $end
	$upscope $end
	$scope module heater $end
		$var wire 1 ( htren $end
		$var wire 8 4 wht_w[7:0] $end
		$var wire 8 5 wht_r[7:0] $end
	$upscope $end
	$scope module reader $end
		$var wire 1 " EnRdB $end
		$var wire 1 # EnRdA $end
		$var wire 1 * rdivbias $end
		$var wire 4 < RdGainB[3:0] $end
		$var wire 4 : RdGainA[3:0] $end
		$var wire 8 ; RdBiasA[7:0] $end
		$var wire 8 = RdBiasB[7:0] $end
	$upscope $end
$upscope $end
$enddefinitions $end
b000000 !
1"
0#
#14
b01 &
b10 '
0(
1)
1*
#26
b00 &
#72
1$
#84
b0000000 +
b00000 ,
#118
b00000 3
#153
b00000000 4
b00000000 5
#234
16
07
08
#533
b00011 -
b000 .
b000 /
b000 0
#544
11
02
#556
b0111 :
b00000000 ;
#567
b0110 <
b00000000 =
#624
b01 &
#2074147
b00 &
#2074735
0%
b01101010 ;
b01101011 =
#2074892
b01 &
#2074910
b10 &
#3038064
b00 &
#3038239
b10 &
#3038247
b1001100 +
b10111 ,
#3038273
b00100 3
1(
0)
0(
#3094755
b00 &
1)
#3094930
b10 &
1(
0)
#3246991
b00 &
0(
1)
#3247070
b000001 !
#3247088
b0101 <
#3247166
b10 &
1(
0)
#3340130
b00 &
0(
1)
#3340209
b000010 !
#3340227
b1000 <
#3340305
b10 &
1(
0)
#3401740
b00 &
0(
1)
#3401819
b000011 !
#3401836
b1001 <
#3401915
b10 &
1(
0)
#3463623
b00 &
0(
1)
#3463702
b000100 !
#3463720
b1000 <
#3463798
b10 &
1(
0)
#3523270
b00 &
0(
1)
#3523349
b000101 !
#3523367
b0111 <
#3523445
b10 &
1(
0)
#3584949
b00 &
0(
1)
#3585028
b000110 !
#3585046
b1010 <
#3585124
b10 &
1(
0)
#3648218
b00 &
0(
1)
#3648297
b000111 !
#3648314
b0111 <
#3648393
b10 &
1(
0)
#3711100
b00 &
0(
1)
#3711179
b001000 !
#3711196
b0101 <
#3711275
b10 &
1(
0)
#3770798
b00 &
0(
1)
#3770877
b001001 !
#3770895
b0110 <
#3770973
b10 &
1(
0)
#3833669
b00 &
0(
1)
#3833748
b001010 !
#3833765
b1000 <
#3833844
b10 &
1(
0)
#3895937
b00 &
0(
1)
#3896016
b001011 !
#3896112
b10 &
1(
0)
#3957427
b00 &
0(
1)
#3957506
b001110 !
#3957523
b1001 <
#3957602
b10 &
1(
0)
#4016859
b00 &
0(
1)
#4016938
b001111 !
#4017034
b10 &
1(
0)
#4075927
b00 &
0(
1)
#4076006
b010000 !
#4076024
b1000 <
#4076102
b10 &
1(
0)
#4138156
b00 &
0(
1)
#4138235
b010001 !
#4138252
b0111 <
#4138331
b10 &
1(
0)
#4197834
b00 &
0(
1)
#4197913
b010010 !
#4198009
b10 &
1(
0)
#4256746
b00 &
0(
1)
#4256825
b010011 !
#4256842
b0110 <
#4256921
b10 &
1(
0)
#4316423
b00 &
0(
1)
#4316502
b000000 !
#4316598
b10 &
1(
0)
#4462812
b00 &
0(
1)
#4462909
b0101 <
#4462987
b10 &
1(
0(
1(
0)
#4558335
b00 &
0(
1)
#4558414
b000010 !
#4558432
b1000 <
#4558510
b10 &
1(
0(
1(
0)
#4642372
b00 &
0(
1)
#4642451
b000011 !
#4642468
b1001 <
#4642547
b10 &
1(
0(
1(
0)
#4707050
b00 &
0(
1)
#4707129
b000100 !
#4707147
b1000 <
#4707225
b10 &
1(
0(
1(
0)
#4803316
b00 &
0(
1)
#4803395
b000101 !
#4803412
b0111 <
#4803491
b10 &
1(
0(
1(
0)
#4900845
b00 &
0(
1)
#4900924
b000110 !
#4900941
b1010 <
#4901020
b10 &
1(
0(
1(
0)
#4995758
b00 &
0(
1)
#4995837
b000111 !
#4995854
b0111 <
#4995933
b10 &
1(
0(
1(
0)
#5070254
b00 &
0(
1)
#5070333
b001000 !
#5070351
b0101 <
#5070429
b10 &
1(
0(
1(
0)
#5153359
b00 &
0(
1)
#5153438
b001001 !
#5153456
b0110 <
#5153534
b10 &
1(
0(
1(
0)
#5224455
b00 &
0(
1)
#5224534
b001010 !
#5224551
b1000 <
#5224630
b10 &
1(
0(
1(
0)
#5319744
b00 &
0(
1)
#5319823
b001011 !
#5319919
b10 &
1(
0(
1(
0)
#5381445
b00 &
0(
1)
#5381524
b001110 !
#5381541
b1001 <
#5381620
b10 &
1(
0(
1(
0)
#5467294
b00 &
0(
1)
#5467373
b001111 !
#5467469
b10 &
1(
0(
1(
0)
#5569628
b00 &
0(
1)
#5569707
b010000 !
#5569724
b1000 <
#5569803
b10 &
1(
0(
1(
0)
#5643462
b00 &
0(
1)
#5643541
b010001 !
#5643558
b0111 <
#5643637
b10 &
1(
0(
1(
0)
#5736783
b00 &
0(
1)
#5736862
b010010 !
#5736958
b10 &
1(
0(
1(
0)
#5810307
b00 &
0(
1)
#5810386
b010011 !
#5810404
b0110 <
#5810482
b10 &
1(
0(
1(
0)
#5874195
b00 &
0(
1)
#5874274
b000000 !
#5874370
b10 &
1(
0(
1(
0)
#5937482
b00 &
0(
1)
#5937561
b000001 !
#5937657
b10 &
1(
0(
1(
0)
#6032802
b00 &
0(
1)
#6032881
b000010 !
#6032899
b1000 <
#6032977
b10 &
1(
0(
1(
0)
#6116429
b00 &
0(
1)
#6116508
b000011 !
#6116525
b1001 <
#6116604
b10 &
1(
0(
1(
0)
#6180915
b00 &
0(
1)
#6180994
b000100 !
#6181011
b1000 <
#6181090
b10 &
1(
0(
1(
0)
#6276589
b00 &
0(
1)
#6276668
b000101 !
#6276686
b0111 <
#6276764
b10 &
1(
0(
1(
0)
#6374113
b00 &
0(
1)
#6374192
b000110 !
#6374210
b1010 <
#6374288
b10 &
1(
0(
1(
0)
#6459799
b00 &
0(
1)
#6459878
b000111 !
#6459896
b0111 <
#6459974
b10 &
1(
0(
1(
0)
#6533296
b00 &
0(
1)
#6533375
b001000 !
#6533392
b0101 <
#6533471
b10 &
1(
0(
1(
0)
#6607994
b00 &
0(
1)
#6608073
b001001 !
#6608090
b0110 <
#6608169
b10 &
1(
0(
1(
0)
#6679884
b00 &
0(
1)
#6679963
b001010 !
#6679981
b1000 <
#6680059
b10 &
1(
0(
1(
0)
#6757147
b00 &
0(
1)
#6757226
b001011 !
#6757322
b10 &
1(
0(
1(
0)
#6818836
b00 &
0(
1)
#6818915
b001110 !
#6818932
b1001 <
#6819011
b10 &
1(
0(
1(
0)
#6912915
b00 &
0(
1)
#6912993
b001111 !
#6913090
b10 &
1(
0(
1(
0)
#7006833
b00 &
0(
1)
#7006912
b010000 !
#7006929
b1000 <
#7007008
b10 &
1(
0(
1(
0)
#7080063
b00 &
#40634493
0(
#57411708
1)
#124520647
b010001 !
#208406739
b0111 <
#241961248
b10 &
#275515678
1(
#476842958
0(
#644622806
1(
#745317937
0)
#795701882
b00 &
#829256312
0(
#846033527
1)
#913142466
b010010 !
#1030583067
b10 &
#1064137497
1(
#1265464624
0(
#1433242668
1(
#1533914365
0)
#1584298314
b00 &
#1617852744
0(
#1634629959
1)
#1701738898
b010011 !
#1785624991
b0110 <
#1819179499
b10 &
#1852733929
1(
#2054061004
0(
#2221835040
1(
#2322506950
0)
#2372890896
b00 &
#2406445326
0(
#2423222541
1)
#2490331480
b000000 !
#2607772081
b10 &
#3010491321
1(
#3111163013
0)
#3161546963
b00 &
#3195101393
0(
#3211878608
1)
#3278987547
b000001 !
#3362873640
b0101 <
#3396428148
b10 &
#3429982578
1(
#3631309669
0(
#3799093119
1(
#3899787443
0)
#3950171402
b00 &
#3983725832
0(
#4000503047
1)
#4067611986
b000010 !
#4151498078
b1000 <
#4185052587
b10 &
#4218607017
1(
#4419934404
0(
#4587714252
1(
#4688400775
0)
#4738784721
b00 &
#4772339151
0(
#4789116366
1)
#4856225305
b000011 !
#4940111397
b1001 <
#4973665906
b10 &
#5007220336
1(
#5208547616
0(
#5376322855
1(
#5476994564
0)
#5527378508
b00 &
#5560932938
0(
#5577710153
1)
#5644819092
b000100 !
#5728705185
b1000 <
#5762259693
b10 &
#5795814123
1(
#5997141359
0(
#6164925814
1(
#6265619746
0)
#6316003697
b00 &
#6349558127
0(
#6366335342
1)
#6433444281
b000101 !
#6517330373
b0111 <
#6550884882
b10 &
#6584439312
1(
#6785766598
0(
#6953552652
1(
#7054228954
0)
#7104612895
b00 &
#7138167325
0(
#7154944540
1)
#7222053479
b000110 !
#7305939572
b1010 <
#7339494080
b10 &
#7373048510
1(
#7574375778
0(
#7742158226
1(
#7842843753
0)
#7893227702
b00 &
#7926782132
0(
#7943559347
1)
#8010668286
b000111 !
#8094554378
b0111 <
#8128108887
b10 &
#8161663317
1(
#8362990601
0(
#8530768647
1(
#8631446952
0)
#8681830894
b00 &
#8715385324
0(
#8732162539
1)
#8799271478
b001000 !
#8883157571
b0101 <
#8916712079
b10 &
#8950266509
1(
#9151593806
0(
#9319373052
1(
#9420051554
0)
#9470435502
b00 &
#9503989932
0(
#9520767147
1)
#9587876086
b001001 !
#9671762179
b0110 <
#9705316687
b10 &
#9738871117
1(
#9940198212
0(
#10107974456
1(
#10208647150
0)
#10259031104
b00 &
#10292585534
0(
#10309362749
1)
#10376471688
b001010 !
#10460357780
b1000 <
#10493912289
b10 &
#10527466719
1(
#10728793967
0(
#10896577420
1(
#10997271554
0)
#11047655499
b00 &
#11081209929
0(
#11097987144
1)
#11165096083
b001011 !
#11282536684
b10 &
#11316091114
1(
#11517418394
0(
#11685190830
1(
#11785862538
0)
#11836246480
b00 &
#11869800910
0(
#11886578125
1)
#11953687064
b001110 !
#12037573156
b1001 <
#12071127665
b10 &
#12104682095
1(
#12306009345
0(
#12473791794
1(
#12574486117
0)
#12624870064
b00 &
#12658424494
0(
#12675201709
1)
#12742310648
b001111 !
#12859751249
b10 &
#12893305679
1(
#13094632958
0(
#13262413807
1(
#13363108941
0)
#13413492889
b00 &
#13447047319
0(
#13463824534
1)
#13530933473
b010000 !
#13614819566
b1000 <
#13648374074
b10 &
#13681928504
1(
#13883255529
0(
#14051033573
1(
#14151720097
0)
#14202104036
b00 &
#14235658466
0(
#14252435681
1)
#14285990190
b010001 !
#14369876282
b0111 <
#14403430791
b10 &
#14436985221
1(
#14638312317
0(
#14806092164
1(
#14906787086
0)
#14957171032
b00 &
#14990725462
0(
#15007502677
1)
#15074611616
b010010 !
#15192052218
b10 &
#15225606648
1(
#15426933963
0(
#15594711406
1(
#15695388517
0)
#15745772468
b00 &
#15779326898
0(
#15796104113
1)
#15863213052
b010011 !
#15947099144
b0110 <
#15980653653
b10 &
#16014208083
1(
#16215535168
0(
#16383309205
1(
#16483981505
0)
#16534365442
b00 &
#16567919872
0(
#16584697087
1)
#16651806026
b000000 !
#16769246627
b10 &
#16802801057
1(
#17004128149
0(
#17171902790
1(
#17272574485
0)
#17322958424
b00 &
#17356512854
0(
#17373290069
1)
#17440399008
b000001 !
#17524285100
b0101 <
#17557839609
b10 &
#17591394039
1(
#17792721349
0(
#17960504802
1(
#18061199112
0)
#18111583064
b00 &
#18145137494
0(
#18161914709
1)
#18229023648
b000010 !
#18312909740
b1000 <
#18346464249
b10 &
#18380018679
1(
#18581345680
0(
#18749125526
1(
#18849811839
0)
#18900195793
b00 &
#18933750223
0(
#18950527438
1)
#19017636377
b000011 !
#19101522470
b1001 <
#19135076978
b10 &
#19168631408
1(
#19369958490
0(
#19537733729
1(
#19638405428
0)
#19688789382
b00 &
#19722343812
0(
#19739121027
1)
#19806229966
b000100 !
#19890116059
b1000 <
#19923670567
b10 &
#19957224997
1(
#20158552235
0(
#20326336685
1(
#20427012788
0)
#20477396733
b00 &
#20510951163
0(
#20527728378
1)
#20594837317
b000101 !
#20678723409
b0111 <
#20712277918
b10 &
#20745832348
1(
#20947159449
0(
#21114945503
1(
#21215639015
0)
#21266022958
b00 &
#21299577388
0(
#21316354603
1)
#21383463542
b000110 !
#21467349634
b1010 <
#21500904143
b10 &
#21534458573
1(
#21735785850
0(
#21903568300
1(
#22004254008
0)
#22054637962
b00 &
#22088192392
0(
#22104969607
1)
#22172078545
b000111 !
#22255964638
b0111 <
#22289519146
b10 &
#22323073576
1(
#22524400674
0(
#22692178717
1(
#22792856807
0)
#22843240752
b00 &
#22876795182
0(
#22893572397
1)
#22960681336
b001000 !
#23044567428
b0101 <
#23078121937
b10 &
#23111676367
1(
#23313003472
0(
#23480782717
1(
#23581461009
0)
#23631844957
b00 &
#23665399387
0(
#23682176602
1)
#23749285541
b001001 !
#23833171634
b0110 <
#23866726142
b10 &
#23900280572
1(
#24101607878
0(
#24269384122
1(
#24370056804
0)
#24420440745
b00 &
#24453995175
0(
#24470772390
1)
#24537881329
b001010 !
#24621767422
b1000 <
#24655321930
b10 &
#24688876360
1(
#24890203632
0(
#25057987085
1(
#25158680405
0)
#25209064357
b00 &
#25242618787
0(
#25259396002
1)
#25326504941
b001011 !
#25443945542
b10 &
#25477499972
1(
#25678827257
0(
#25846599692
1(
#25947271391
0)
#25997655333
b00 &
#26031209763
0(
#26047986978
1)
#26115095917
b001110 !
#26198982009
b1001 <
#26232536518
b10 &
#26266090948
1(
#26467418207
0(
#26635200656
1(
#26735894969
0)
#26786278910
b00 &
#26819833340
0(
#26836610555
1)
#26903719494
b001111 !
#27021160095
b10 &
#27054714525
1(
#27256041819
0(
#27423822664
1(
#27524508979
0)
#27574892930
b00 &
#27608447360
0(
#27625224575
1)
#27692333514
b010000 !
#27776219606
b1000 <
#27809774115
b10 &
#27843328545
1(
#28044655577
0(
#28212433622
1(
#28313111925
0)
#28363495874
b00 &
#28397050304
0(
#28413827519
1)
#28480936458
b010001 !
#28564822550
b0111 <
#28598377059
b10 &
#28631931489
1(
#28833258785
0(
#29001038632
1(
#29101725133
0)
#29152109075
b00 &
#29185663505
0(
#29202440720
1)
#29269549659
b010010 !
#29386990260
b10 &
#29420544690
1(
#29621872020
0(
#29789649462
1(
#29890326767
0)
#29940710712
b00 &
#29974265142
0(
#29991042357
1)
#30058151296
b010011 !
#30142037388
b0110 <
#30175591897
b10 &
#30209146327
1(
#30410473625
0(
#30578247664
1(
#30678919749
0)
#30729303705
b00 &
#30762858135
0(
#30779635350
1)
#30846744289
b000000 !
#30964184890
b10 &
#31366903926
1(
#31467575618
0)
#31517959570
b00 &
#31551514000
0(
#31568291215
1)
#31635400154
b000001 !
#31719286246
b0101 <
#31752840755
b10 &
#31786395185
1(
#31987722273
0(
#32155505722
1(
#32256207857
0)
#32306591806
b00 &
#32340146236
0(
#32356923451
1)
#32424032390
b000010 !
#32507918483
b1000 <
#32541472991
b10 &
#32575027421
1(
#32776354640
0(
#32944134487
1(
#33044820986
0)
#33095204940
b00 &
#33128759370
0(
#33145536585
1)
#33212645524
b000011 !
#33296531616
b1001 <
#33330086125
b10 &
#33363640555
1(
#33564967853
0(
#33732743095
1(
#33833414780
0)
#33883798727
b00 &
#33917353157
0(
#33934130372
1)
#34001239311
b000100 !
#34085125404
b1000 <
#34118679912
b10 &
#34152234342
1(
#34353561597
0(
#34521346050
1(
#34622040762
0)
#34672424714
b00 &
#34705979144
0(
#34722756359
1)
#34789865298
b000101 !
#34873751390
b0111 <
#34907305899
b10 &
#34940860329
1(
#35142187615
0(
#35309973668
1(
#35410667592
0)
#35461051538
b00 &
#35494605968
0(
#35511383183
1)
#35578492122
b000110 !
#35662378215
b1010 <
#35695932723
b10 &
#35729487153
1(
#35930814443
0(
#36098596893
1(
#36199291000
0)
#36249674955
b00 &
#36283229385
0(
#36300006600
1)
#36367115539
b000111 !
#36451001632
b0111 <
#36484556140
b10 &
#36518110570
1(
#36719437655
0(
#36887215697
1(
#36987893796
0)
#37038277752
b00 &
#37071832182
0(
#37088609397
1)
#37155718336
b001000 !
#37239604428
b0101 <
#37273158937
b10 &
#37306713367
1(
#37508040452
0(
#37675820298
1(
#37776506611
0)
#37826890563
b00 &
#37860444993
0(
#37877222208
1)
#37944331147
b001001 !
#38028217239
b0110 <
#38061771748
b10 &
#38095326178
1(
#38296653270
0(
#38464429112
1(
#38565105614
0)
#38615489555
b00 &
#38649043985
0(
#38665821200
1)
#38732930139
b001010 !
#38816816232
b1000 <
#38850370740
b10 &
#38883925170
1(
#39085252255
0(
#39253035705
1(
#39353730218
0)
#39404114166
b00 &
#39437668596
0(
#39454445811
1)
#39521554750
b001011 !
#39638995351
b10 &
#39672549781
1(
#39873877082
0(
#40041649519
1(
#40142321203
0)
#40192705157
b00 &
#40226259587
0(
#40243036802
1)
#40310145741
b001110 !
#40394031833
b1001 <
#40427586342
b10 &
#40461140772
1(
#40662468009
0(
#40830250458
1(
#40930945583
0)
#40981329531
b00 &
#41014883961
0(
#41031661176
1)
#41098770115
b001111 !
#41216210716
b10 &
#41249765146
1(
#41451092446
0(
#41618873293
1(
#41719559794
0)
#41769943731
b00 &
#41803498161
0(
#41820275376
1)
#41887384314
b010000 !
#41971270407
b1000 <
#42004824916
b10 &
#42038379346
1(
#42239706605
0(
#42407485251
1(
#42508163540
0)
#42558547497
b00 &
#42592101927
0(
#42608879142
1)
#42675988081
b010001 !
#42759874173
b0111 <
#42793428682
b10 &
#42826983112
1(
#43028310190
0(
#43196090038
1(
#43296776951
0)
#43347160892
b00 &
#43380715322
0(
#43397492537
1)
#43464601476
b010010 !
#43582042077
b10 &
#43615596507
1(
#43816923850
0(
#43984700694
1(
#44085372382
0)
#44135756316
b00 &
#44169310746
0(
#44186087961
1)
#44253196900
b010011 !
#44337082992
b0110 <
#44370637501
b10 &
#44404191931
1(
#44605519022
0(
#44773293664
1(
#44873970165
0)
#44924354110
b00 &
#44957908540
0(
#44974685755
1)
#45041794694
b000000 !
#45159235295
b10 &
#45192789725
1(
#45394116831
0(
#45561891472
1(
#45662563170
0)
#45712947107
b00 &
#45746501537
0(
#45763278752
1)
#45830387691
b000001 !
#45914273783
b0101 <
#45947828292
b10 &
#45981382722
1(
#46182710013
0(
#46350493466
1(
#46451187797
0)
#46501571747
b00 &
#46535126177
0(
#46551903392
1)
#46619012331
b000010 !
#46702898423
b1000 <
#46736452932
b10 &
#46770007362
1(
#46971334366
0(
#47139114212
1(
#47239801130
0)
#47290185061
b00 &
#47323739491
0(
#47340516706
1)
#47407625645
b000011 !
#47491511738
b1001 <
#47525066246
b10 &
#47558620676
1(
#47759947977
0(
#47927723217
1(
#48028394916
0)
#48078778856
b00 &
#48112333286
0(
#48129110501
1)
#48196219440
b000100 !
#48280105532
b1000 <
#48313660041
b10 &
#48347214471
1(
#48548541722
0(
#48716326173
1(
#48817020099
0)
#48867404045
b00 &
#48900958475
0(
#48917735690
1)
#48984844629
b000101 !
#49068730721
b0111 <
#49102285230
b10 &
#49135839660
1(
#49337166936
0(
#49504952990
1(
#49605646325
0)
#49656030276
b00 &
#49689584706
0(
#49706361921
1)
#49773470860
b000110 !
#49857356952
b1010 <
#49890911461
b10 &
#49924465891
1(
#50125792957
0(
#50293575405
1(
#50394270136
0)
#50444654082
b00 &
#50478208512
0(
#50494985727
1)
#50562094666
b000111 !
#50645980758
b0111 <
#50679535267
b10 &
#50713089697
1(
#50914416968
0(
#51082195015
1(
#51182873531
0)
#51233257485
b00 &
#51266811915
0(
#51283589130
1)
#51350698069
b001000 !
#51434584162
b0101 <
#51468138670
b10 &
#51501693100
1(
#51703020170
0(
#51870800019
1(
#51971477730
0)
#52021861673
b00 &
#52055416103
0(
#52072193318
1)
#52139302256
b001001 !
#52223188349
b0110 <
#52256742857
b10 &
#52290297287
1(
#52491624576
0(
#52659400424
1(
#52760073526
0)
#52810457466
b00 &
#52844011896
0(
#52860789111
1)
#52927898050
b001010 !
#53011784142
b1000 <
#53045338651
b10 &
#53078893081
1(
#53280220355
0(
#53448003804
1(
#53548698332
0)
#53599082264
b00 &
#53632636694
0(
#53649413909
1)
#53716522848
b001011 !
#53833963449
b10 &
#53867517879
1(
#54068845181
0(
#54236617617
1(
#54337289315
0)
#54387673258
b00 &
#54421227688
0(
#54438004903
1)
#54505113842
b001110 !
#54588999934
b1001 <
#54622554443
b10 &
#54656108873
1(
#54857436108
0(
#55025218559
1(
#55125913094
0)
#55176297038
b00 &
#55209851468
0(
#55226628683
1)
#55293737622
b001111 !
#55411178223
b10 &
#55444732653
1(
#55646059743
0(
#55813840591
1(
#55914536116
0)
#55964920068
b00 &
#55998474498
0(
#56015251713
1)
#56082360652
b010000 !
#56166246745
b1000 <
#56199801253
b10 &
#56233355683
1(
#56434682712
0(
#56602461357
1(
#56703139460
0)
#56753523408
b00 &
#56787077838
0(
#56803855053
1)
#56870963992
b010001 !
#56954850085
b0111 <
#56988404593
b10 &
#57021959023
1(
#57223286297
0(
#57391066145
1(
#57491752869
0)
#57542136816
b00 &
#57575691246
0(
#57592468461
1)
#57659577400
b010010 !
#57777018001
b10 &
#57810572431
1(
#58011899557
0(
#58179676398
1(
#58280348097
0)
#58330732044
b00 &
#58364286474
0(
#58381063689
1)
#58448172628
b010011 !
#58532058721
b0110 <
#58565613229
b10 &
#58599167659
1(
#58800494729
0(
#58968269371
1(
#59068945681
0)
#59119329642
b00 &
#59152884072
0(
#59169661287
1)
#59236770226
b000000 !
#59354210828
b10 &
#59756933264
1(
#59857609960
0)
#59907993907
b00 &
#59941548337
0(
#59958325552
1)
#60058988938
b0101 <
#60092543447
b10 &
#60126097877
1(
#60344208082
0)
#60394592035
b00 &
#60428146465
0(
#60444923680
1)
#60512032619
b000010 !
#60595918712
b1000 <
#60629473220
b10 &
#60663027650
1(
#60881138153
0)
#60931522092
b00 &
#60965076522
0(
#60981853737
1)
#61048962676
b000011 !
#61132848769
b1001 <
#61166403277
b10 &
#61199957707
1(
#61418068713
0)
#61468452647
b00 &
#61502007077
0(
#61518784292
1)
#61585893231
b000100 !
#61669779323
b1000 <
#61703343401
b10 &
#61736897831
1(
#61753675046
0)
#61787281773
b00 &
#61820836203
0(
#61837613418
1)
#61871175429
b10 &
#61904729859
1(
#61921507074
0)
#61955113815
b00 &
#61988668245
0(
#62005445460
1)
#62290845302
b10 &
#62324399732
1(
#62341176947
0)
#62374783670
b00 &
#62408338100
0(
#62425115315
1)
#62458680104
b10 &
#62492234534
1(
#62509011749
0)
#62542618478
b00 &
#62576172908
0(
#62592950123
1)
#62626513933
b10 &
#62660068363
1(
#62676845578
0)
#62710452310
b00 &
#62744006740
0(
#62760783955
1)
#62794345120
b10 &
#62827899550
1(
#62844676765
0)
#62878283498
b00 &
#62911837928
0(
#62928615143
1)
#63046127244
b10 &
#63079681674
1(
#63096458889
0)
#63130065622
b00 &
#63163620052
0(
#63180397267
1)
#63213961672
b10 &
#63247516102
1(
#63264293317
0)
#63297900067
b00 &
#63331454497
0(
#63348231712
1)
#63549783156
b10 &
#63583337586
1(
#63684011281
0)
#63734347162
b00 &
#63767901592
0(
#63784678807
1)
#63818241616
b10 &
#63851796046
1(
#63868573261
0)
#63952514199
1)
#64036408677
0)
#64120349639
1)
#64204245519
0)
#64288186456
1)
#64372080932
0)
#64456021892
1)
#64539917770
0)
#64623858311
1)
#64707752785
0)
#64791693147
1)
#64875589227
0)
#64959529763
1)
#64993096823
b00 &
#65026651253
0(
#65077032954
b10 &
#65110587384
1(
#65160933267
b00 &
#65194487697
0(
#65244868973
b10 &
#65278423403
1(
#65328767675
b00 &
#65362322105
0(
#65412703608
b10 &
#65446258038
1(
#65496604117
b00 &
#65530158547
0(
#65580539622
b10 &
#65614094052
1(
#65664438733
b00 &
#65697993163
0(
#65748374258
b10 &
#65781928688
1(
#65882602384
0)
#65966541923
1)
#66050436797
0)
#66134376559
1)
#66218273039
0)
#66302212574
1)
#66386107251
0)
#66470046611
1)
#66553943491
0)
#66637883229
1)
#66721778706
0)
#66805718267
1)
#66889615347
0)
#66973583522
1)
#67057477997
0)
#67108476688
b00 &
#67142031118
0(
#67158808333
1)
#67225917272
b010010 !
#67309803364
b0111 <
#67343357873
b10 &
#67376912303
1(
#67595023300
0)
#67629244786
b00 &
0(
1)
#67629244865
b010001 !
#67629244961
b10 &
1(
0)
#67629921571
b00 &
0(
1)
#67629921650
b010000 !
#67629921668
b1000 <
#67629921746
b10 &
1(
0)
#67630596014
b00 &
0(
1)
#67630596093
b001111 !
#67630596110
b1001 <
#67630596189
b10 &
1(
0)
#67631273311
b00 &
0(
1)
#67631273390
b001110 !
#67631273486
b10 &
1(
0)
#67631947142
b00 &
0(
1)
#67631947221
b001011 !
#67631947239
b1000 <
#67631947317
b10 &
1(
0)
#67632624225
b00 &
0(
1)
#67632624303
b001010 !
#67632624400
b10 &
1(
0)
#67633301271
b00 &
0(
1)
#67633301350
b001001 !
#67633301367
b0110 <
#67633301446
b10 &
1(
0)
#67633978130
b00 &
0(
1)
#67633978209
b001000 !
#67633978226
b0101 <
#67633978305
b10 &
1(
0)
#67634653358
b00 &
0(
1)
#67634653437
b000111 !
#67634653454
b0111 <
#67634653533
b10 &
1(
0)
#67635331012
b00 &
0(
1)
#67635331091
b000110 !
#67635331109
b1010 <
#67635331187
b10 &
1(
0)
#67636004651
b00 &
0(
1)
#67636004730
b000101 !
#67636004747
b0111 <
#67636004826
b10 &
1(
0)
#67636679706
b00 &
#67670234136
0(
#67687011351
1)
#67754120289
b000100 !
#67838006382
b1000 <
#67871560890
b10 &
#67905115320
1(
#68123228914
0)
#68174227613
b00 &
#68207782043
0(
#68224559258
1)
#68291668197
b000011 !
#68375554290
b1001 <
#68409108798
b10 &
#68442663228
1(
#68660774482
0)
#68711773185
b00 &
#68745327615
0(
#68762104830
1)
#68829213769
b000010 !
#68913099862
b1000 <
#68946654370
b10 &
#68980208800
1(
#69198321797
0)
#69249320514
b00 &
#69282874944
0(
#69299652159
1)
#69366761098
b000001 !
#69450647190
b0101 <
#69484201699
b10 &
#69517756129
1(
#69735867802
0)
#69786866516
b00 &
#69820420946
0(
#69837198161
1)
#69904307100
b000000 !
#69988193192
b0110 <
#70021747701
b10 &
#70055302131
1(
#70273413918
0)
#70324412629
b00 &
#70357967059
0(
#70374744274
1)
#70441853213
b010011 !
#70559293814
b10 &
#70592848244
1(
#70810960853
0)
#70861385235
b00 &
#70894939665
0(
#70911716880
1)
#70978825819
b010010 !
#71062711911
b0111 <
#71096266420
b10 &
#71129820850
1(
#71347932858
0)
#71398357239
b00 &
#71431911669
0(
#71448688884
1)
#71515797823
b010001 !
#71633238424
b10 &
#71666792854
1(
#71884904026
0)
#71935328419
b00 &
#71968882849
0(
#71985660064
1)
#72052769003
b010000 !
#72136655095
b1000 <
#72170209604
b10 &
#72203764034
1(
#72421874434
0)
#72472298810
b00 &
#72505853240
0(
#72522630455
1)
#72589739394
b001111 !
#72673625486
b1001 <
#72707179995
b10 &
#72740734425
1(
#72958844687
0)
#73009269071
b00 &
#73042823501
0(
#73059600716
1)
#73126709655
b001110 !
#73244150256
b10 &
#73277704686
1(
#73495814893
0)
#73546239281
b00 &
#73579793711
0(
#73596570926
1)
#73663679865
b001011 !
#73747565958
b1000 <
#73781120466
b10 &
#73814674896
1(
#74032785337
0)
#74083209720
b00 &
#74116764150
0(
#74133541365
1)
#74200650304
b001010 !
#74318090905
b10 &
#74351645335
1(
#74569756341
0)
#74620180723
b00 &
#74653735153
0(
#74670512368
1)
#74737621307
b001001 !
#74821507399
b0110 <
#74855061908
b10 &
#74888616338
1(
#75106726767
0)
#75157151146
b00 &
#75190705576
0(
#75207482791
1)
#75274591730
b001000 !
#75358477822
b0101 <
#75392032331
b10 &
#75425586761
1(
#75643697966
0)
#75694122357
b00 &
#75727676787
0(
#75744454002
1)
#75811570837
b10 &
#75845125267
1(
#75861902482
0)
#75895549639
b00 &
#75929104069
0(
#75945881284
1)
#75979443508
b10 &
#76012997938
1(
#76029775153
0)
#76063422329
b00 &
#76096976759
0(
#76113753974
1)
#76298409262
b10 &
#76331963692
1(
#76348740907
0)
#76382388073
b00 &
#76415942503
0(
#76432719718
1)
#76734918344
b10 &
#76768472774
1(
#76785249989
0)
#76818897159
b00 &
#76852451589
0(
#76869228804
1)
#77053926718
b10 &
#77087481148
1(
#77188152855
0)
#77389538730
b00 &
#77423093160
0(
#77439870375
1)
#77473512282
b10 &
#77507066712
1(
#77607738420
0)
#77658099122
b00 &
#77691653552
0(
#77708430767
1)
#77909886484
b10 &
#77943440914
1(
#78044115029
0)
#78094473338
b00 &
#78128027768
0(
#78144804983
1)
#78346260289
b10 &
#78379814719
1(
#78480486425
0)
#78530847531
b00 &
#78564401961
0(
#78581179176
1)
#78614743599
b10 &
#78648298029
1(
#78665075244
0)
#78698661337
b00 &
#78732215767
0(
#78748992982
1)
#78782634246
b10 &
#78816188676
1(
#78916864795
0)
#78967221701
b00 &
#79000776131
0(
#79017553346
1)
#79219008251
b10 &
#79252562681
1(
#79353234390
0)
#79403595907
b00 &
#79437150337
0(
#79453927552
1)
#79655382652
b10 &
#79688937082
1(
#79789613398
0)
#79839970098
b00 &
#79873524528
0(
#79890301743
1)
#79923866965
b10 &
