out.vcd
$version 1.0 $end
$comment
	btko csv to vcd converter - serial sniffer output
	use vcd2wlf for modelsim
$end
$timescale 100ns $end
$scope module top $end
$var wire 6 ! head[5:0] $end
$var wire 1 $ SnsFltEnR $end
$var wire 1 % MwinOpen $end
$var wire 2 & mode[1:0] $end
$var wire 2 ' dfctl[1:0] $end
$var wire 1 6 fltamux $end
$var wire 1 7 tmux $end
$var wire 1 8 digon $end
$var wire 10 9 adc[9:0] $end
	$scope module writer $end
		$var wire 1 ) wtroff $end
		$var wire 7 + iw[6:0] $end
		$var wire 5 , os[4:0] $end
		$var wire 5 - dur[4:0] $end
		$var wire 3 . iwtr[2:0] $end
		$var wire 3 / iwtf[2:0] $end
		$var wire 3 0 ostr[2:0] $end
		$var wire 5 3 pdw[4:0] $end
	$upscope $end
	$scope module pdw $end
		$var wire 1 1 PDW_en $end
		$var wire 1 2 patpoldet $end
	$upscope $end
	$scope module heater $end
		$var wire 1 ( htren $end
		$var wire 8 4 wht_w[7:0] $end
		$var wire 8 5 wht_r[7:0] $end
	$upscope $end
	$scope module reader $end
		$var wire 1 " EnRdB $end
		$var wire 1 # EnRdA $end
		$var wire 1 * rdivbias $end
		$var wire 4 < RdGainB[3:0] $end
		$var wire 4 : RdGainA[3:0] $end
		$var wire 8 ; RdBiasA[7:0] $end
		$var wire 8 = RdBiasB[7:0] $end
	$upscope $end
$upscope $end
$enddefinitions $end
#1479
b01 &
b10 '
0(
1)
1*
#1496
0%
#1514
b00110011 4
b01000010 5
#1540
b000000 !
1"
1#
#1549
b0110 :
b10010000 ;
#1557
b0110 <
b01111111 =
#1575
b10 &
#1583
b1111010 +
b10000 ,
#1592
b10010 -
b111 .
b110 /
b111 0
#1601
b00111 3
#1636
0$
#125230
1$
#125569
11
02
#125781
16
17
08
#126164
1%
12
#127383
0%
1(
0)
#194530
1%
0(
#281376
b1000000000 9
#281981
0%
1(
1)
0)
#361145
1%
0(
1)
#448398
0%
1(
0)
#527762
1%
0(
1)
#614816
0%
1(
0)
#694379
1%
0(
1)
#781432
0%
1(
0)
#860995
1%
0(
02
1)
#948248
0%
1(
0)
#1027611
1%
0(
1)
#1114661
0%
1(
0)
#1194221
1%
0(
1)
#1281272
0%
1(
0)
#1360834
1%
0(
1)
#1447883
0%
1(
0)
#1527444
1%
0(
1)
#1614491
0%
1(
0)
#1694052
1%
0(
12
1)
#1783504
0%
1(
0)
#1860660
1%
0(
1)
#1947708
0%
1(
0)
#2027267
1%
0(
1)
#2114316
0%
1(
0)
#2193875
1%
0(
1)
#2280922
0%
1(
0)
#2360483
1%
0(
1)
#2447529
0%
1(
0)
#2527089
1%
0(
02
1)
#2614336
0%
1(
0)
#2693696
1%
0(
1)
#2780743
0%
1(
0)
#2860302
1%
0(
1)
#2947351
0%
1(
0)
#3026910
1%
0(
1)
#3113958
0%
1(
0)
#3193518
1%
0(
1)
#3280565
0%
1(
0)
#3360126
1%
0(
12
1)
#3449376
0%
1(
0)
#3526732
1%
0(
1)
#3613781
0%
1(
0)
#3693341
1%
0(
1)
#3780388
0%
1(
0)
#3859950
1%
0(
1)
#3946997
0%
1(
0)
#4026557
1%
0(
1)
#4113604
0%
1(
0)
#4193165
1%
0(
02
1)
#4280413
0%
1(
0)
#4359772
1%
0(
1)
#4446820
0%
1(
0)
#4526380
1%
0(
1)
#4613429
0%
1(
0)
#4692988
1%
0(
1)
#4780037
0%
1(
0)
#4859597
1%
0(
1)
#4946645
0%
1(
0)
#5026204
1%
0(
12
1)
#5115456
0%
1(
0)
#5192813
1%
0(
1)
#5279860
0%
1(
0)
#5359421
1%
0(
1)
#5446469
0%
1(
0)
#5526029
1%
0(
1)
#5613077
0%
1(
0)
#5692636
1%
0(
1)
#5779684
0%
1(
0)
#5859244
1%
0(
02
1)
#5946492
0%
1(
0)
#6025852
1%
0(
1)
#6112900
0%
1(
0)
#6192459
1%
0(
1)
#6279508
0%
1(
0)
#6359067
1%
0(
1)
#6446116
0%
1(
0)
#6525676
1%
0(
1)
#6612725
0%
1(
0)
#6692283
1%
0(
12
1)
#6781334
0%
1(
0)
#6858890
1%
0(
1)
#6945939
0%
1(
0)
#7025498
1%
0(
1)
#7112547
0%
1(
0)
#7192107
1%
0(
1)
#7279154
0%
1(
0)
#7358714
1%
0(
1)
#7445761
0%
1(
0)
#7525322
1%
0(
02
1)
#7612570
0%
1(
0)
#7691930
1%
0(
1)
#7778977
0%
1(
0)
#7858537
1%
0(
1)
#7945586
0%
1(
0)
#8025145
1%
0(
1)
#8112193
0%
1(
0)
#8191755
1%
0(
1)
#8278801
0%
1(
0)
#8358360
1%
0(
12
1)
#8447611
0%
1(
0)
#8524970
1%
0(
1)
#8612018
0%
1(
0)
#8691577
1%
0(
1)
#8778625
0%
1(
0)
#8858185
1%
0(
1)
#8945233
0%
1(
0)
#9024793
1%
0(
1)
#9111842
0%
1(
0)
#9191402
1%
0(
02
1)
#9278649
0%
1(
0)
#9358010
1%
0(
1)
#9445056
0%
1(
0)
#9524617
1%
0(
1)
#9611665
0%
1(
0)
#9691223
1%
0(
1)
#9778272
0%
1(
0)
#9857830
1%
#43498679
0(
#244825879
1)
#278380317
0%
#362335931
1(
#463009033
0)
#513340887
1%
#563758951
0(
#731533314
12
#798642785
1)
#832197224
0%
#916150634
1(
#1016823735
0)
#1067155592
1%
#1117573656
0(
#1318900856
1)
#1352455294
0%
#1436410907
1(
#1537084008
0)
#1587415865
1%
#1637833929
0(
#1839161129
1)
#1872715568
0%
#1956671181
1(
#2057344281
0)
#2107676138
1%
#2158094201
0(
#2359421402
1)
#2392975841
0%
#2476931454
1(
#2577604555
0)
#2627936412
1%
#2678354474
0(
#2879681675
1)
#2913236114
0%
#2997191728
1(
#3097864830
0)
#3148196684
1%
#3198614747
0(
#3366387309
02
#3433496577
1)
#3467051016
0%
#3551006432
1(
#3651679531
0)
#3702011386
1%
#3752429450
0(
#3953756652
1)
#3987311091
0%
#4071266701
1(
#4171939803
0)
#4222271659
1%
#4272689723
0(
#4474016924
1)
#4507571362
0%
#4591526975
1(
#4692200077
0)
#4742531933
1%
#4792949995
0(
#4994277195
1)
#5027831634
0%
#5111787248
1(
#5212460349
0)
#5262792206
1%
#5313210268
0(
#5514537469
1)
#5548091907
0%
#5632047519
1(
#5732720621
0)
#5783052477
1%
#5833470540
0(
#6001244903
12
#6068354174
1)
#6101908613
0%
#6185862222
1(
#6286535325
0)
#6336867180
1%
#6387285242
0(
#6588612444
1)
#6622166883
0%
#6706122494
1(
#6806795597
0)
#6857127452
1%
#6907545514
0(
#7108872717
1)
#7142427156
0%
#7226382767
1(
#7327055870
0)
#7377387725
1%
#7427805788
0(
#7629132990
1)
#7662687428
0%
#7746643041
1(
#7847316141
0)
#7897647998
1%
#7948066061
0(
#8149393262
1)
#8182947700
0%
#8266903312
1(
#8367576414
0)
#8417908269
1%
#8468326333
0(
#8636098897
02
#8703208164
1)
#8736762603
0%
#8820718014
1(
#8921391117
0)
#8971722972
1%
#9022141036
0(
#9223468237
1)
#9257022676
0%
#9340978289
1(
#9441651390
0)
#9491983246
1%
#9542401310
0(
#9743728510
1)
#9777282949
0%
#9861238562
1(
#9961911663
0)
#10012243518
1%
#10062661582
0(
#10263988783
1)
#10297543222
0%
#10381498834
1(
#10482171936
0)
#10532503792
1%
#10582921856
0(
#10784249056
1)
#10817803495
0%
#10901759108
1(
#11002432210
0)
#11052764064
1%
#11103182128
0(
#11270956491
12
#11338065761
1)
#11371620200
0%
#11455573810
1(
#11556246911
0)
#11606578767
1%
#11656996831
0(
#11858324031
1)
#11891878470
0%
#11975834082
1(
#12076507185
0)
#12126839041
1%
#12177257104
0(
#12378584304
1)
#12412138743
0%
#12496094357
1(
#12596767459
0)
#12647099313
1%
#12697517377
0(
#12898844578
1)
#12932399016
0%
#13016354630
1(
#13117027730
0)
#13167359589
1%
#13217777650
0(
#13419104852
1)
#13452659290
0%
#13536614902
1(
#13637288004
0)
#13687619860
1%
#13738037923
0(
#13905810485
02
#13972919755
1)
#14006474194
0%
#14090429605
1(
#14191102707
0)
#14241434564
1%
#14291852625
0(
#14493179827
1)
#14526734266
0%
#14610689878
1(
#14711362979
0)
#14761694836
1%
#14812112899
0(
#15013440100
1)
#15046994538
0%
#15130950149
1(
#15231623253
0)
#15281955109
1%
#15332373171
0(
#15533700373
1)
#15567254812
0%
#15651210424
1(
#15751883527
0)
#15802215383
1%
#15852633444
0(
#16053960645
1)
#16087515084
0%
#16171470697
1(
#16272143798
0)
#16322475655
1%
#16372893717
0(
#16540668080
12
#16607777351
1)
#16641331789
0%
#16725285399
1(
#16825958501
0)
#16876290355
1%
#16926708419
0(
#17128035620
1)
#17161590059
0%
#17245545672
1(
#17346218773
0)
#17396550629
1%
#17446968692
0(
#17648295893
1)
#17681850331
0%
#17765805944
1(
#17866479046
0)
#17916810901
1%
#17967228966
0(
#18168556166
1)
#18202110605
0%
#18286066218
1(
#18386739320
0)
#18437071174
1%
#18487489239
0(
#18688816439
1)
#18722370878
0%
#18806326491
1(
#18906999591
0)
#18957331448
1%
#19007749511
0(
#19175522075
02
#19242631343
1)
#19276185782
0%
#19360141192
1(
#19460814295
0)
#19511146151
1%
#19561564214
0(
#19762891416
1)
#19796445854
0%
#19880401465
1(
#19981074567
0)
#20031406423
1%
#20081824487
0(
#20283151688
1)
#20316706127
0%
#20400661739
1(
#20501334841
0)
#20551666696
1%
#20602084760
0(
#20803411959
1)
#20836966398
0%
#20920922011
1(
#21021595113
0)
#21071926968
1%
#21122345031
0(
#21323672233
1)
#21357226672
0%
#21441182282
1(
#21541855386
0)
#21592187241
1%
#21642605304
0(
12
1)
#21776825656
0%
1(
0)
#21776903214
1%
0(
1)
#21776990261
0%
1(
0)
#21777069822
1%
0(
1)
#21777156870
0%
1(
0)
0(
1)
1(
0)
#21777403037
1%
0(
1)
#21777490086
0%
1(
0)
#21777569645
1%
0(
02
1)
#21777656893
0%
1(
0)
#21777736253
1%
0(
1)
#21777823301
0%
1(
0)
#21777902863
1%
0(
1)
#21777989908
0%
1(
0)
#21778069470
1%
0(
1)
#21778156516
0%
1(
0)
#21778236078
1%
0(
1)
#21778323125
0%
1(
0)
#21778402684
1%
0(
12
1)
#21778491736
0%
1(
0)
#21778569292
1%
0(
1)
#21778656342
0%
1(
0)
#21778735901
1%
0(
1)
#21778822949
0%
1(
0)
#21778902509
1%
0(
1)
#21778989557
0%
1(
0)
#21779069118
1%
0(
1)
#21779156165
0%
1(
0)
0(
02
1)
1(
0)
#21779402334
1%
0(
1)
#21779489381
0%
1(
0)
#21779568940
1%
0(
1)
#21779655989
0%
1(
0)
#21779735547
1%
0(
1)
#21779822596
0%
1(
0)
#21779902158
1%
0(
1)
#21779989204
0%
1(
0)
#21780068763
1%
0(
12
1)
#21780157815
0%
1(
0)
#21780235371
1%
0(
1)
#21780322419
0%
1(
0)
#21780401979
1%
0(
1)
#21780489027
0%
1(
0)
#21780568587
1%
0(
1)
#21780655634
0%
1(
0)
#21780735195
1%
0(
1)
#21780822243
0%
1(
0)
#21780901803
1%
0(
02
1)
#21780989051
0%
1(
0)
#21781068411
1%
0(
1)
#21781155459
0%
1(
0)
#21781235019
1%
0(
1)
#21781322065
0%
1(
0)
#21781401626
1%
0(
1)
#21781488675
0%
1(
0)
#21781568234
1%
0(
1)
#21781655282
0%
1(
0)
#21781734841
1%
0(
12
1)
#21781823893
0%
1(
0)
#21781901449
1%
0(
1)
#21781988498
0%
1(
0)
#21782068057
1%
0(
1)
#21782155105
0%
1(
0)
#21782234664
1%
0(
1)
#21782321713
0%
1(
0)
#21782401272
1%
0(
1)
#21782488321
0%
1(
0)
#21782567882
1%
0(
02
1)
#21782655131
0%
1(
0)
#21782734489
1%
0(
1)
#21782821537
0%
1(
0)
#21782901096
1%
0(
1)
#21782988144
0%
1(
0)
#21783067705
1%
0(
1)
#21783154754
0%
1(
0)
#21783234314
1%
0(
1)
#21783321361
0%
1(
0)
#21783400921
1%
0(
12
1)
#21783490171
0%
1(
0)
#21783567529
1%
0(
1)
#21783654577
0%
1(
0)
#21783734136
1%
0(
1)
#21783821185
0%
1(
0)
#21783900743
1%
0(
1)
#21783987792
0%
1(
0)
#21784067352
1%
0(
#21784153994
b1011111111 9
1)
#21784154400
0%
1(
0)
#21784233960
1%
0(
#21784320602
b1000000000 9
02
1)
#21784321208
0%
1(
0)
#21784400569
1%
0(
1)
#21784487616
0%
1(
0)
#21784567176
1%
0(
1)
#21784654225
0%
1(
0)
#21784733783
1%
0(
1)
#21784820832
0%
1(
0)
#21784900391
1%
0(
1)
#21784987440
0%
1(
0)
#21785066999
1%
0(
12
1)
#21785156250
0%
1(
0)
#21785233607
1%
0(
#21785320249
b1011111111 9
1)
#21785320657
0%
1(
0)
#21785400215
1%
0(
1)
#21785487262
0%
1(
0)
#21785566823
1%
0(
1)
#21785653870
0%
1(
0)
#21785733430
1%
0(
1)
#21785820477
0%
1(
0)
#21785900037
1%
0(
02
1)
#21785987286
0%
1(
0)
#21786066645
1%
0(
1)
#21786153695
0%
1(
0)
#21786233253
1%
0(
1)
#21786320302
0%
1(
0)
#21786399862
1%
0(
1)
#21786486910
0%
1(
0)
#21786566470
1%
0(
1)
#21786653516
0%
1(
0)
#21786733077
1%
#21820373924
0(
#21988148287
12
#22055257557
1)
#22088811996
0%
#22172765607
1(
#22273438706
0)
#22323770564
1%
#22374188627
0(
#22575515828
1)
#22609070267
0%
#22693025878
1(
#22793698980
0)
#22844030835
1%
#22894448900
0(
#23095776100
1)
#23129330539
0%
#23213286151
1(
#23313959253
0)
#23364291109
1%
#23414709171
0(
#23616036372
1)
#23649590811
0%
#23733546423
1(
#23834219524
0)
#23884551382
1%
#23934969445
0(
#24136296645
1)
#24169851084
0%
#24253806696
1(
#24354479799
0)
#24404811655
1%
#24455229719
0(
#24623002279
02
#24690111549
1)
#24723665988
0%
#24807621400
1(
#24908294502
0)
#24958626357
1%
#25009044420
0(
#25210371620
1)
#25243926059
0%
#25327881673
1(
#25428554774
0)
#25478886630
1%
#25529304694
0(
#25730631894
1)
#25764186333
0%
#25848141945
1(
#25948815047
0)
#25999146902
1%
#26049564965
0(
#26250892167
1)
#26284446606
0%
#26368402215
1(
#26469075320
0)
#26519407175
1%
#26569825238
0(
#26771152440
1)
#26804706879
0%
#26888662491
1(
#26989335594
0)
#27039667448
1%
#27090085512
0(
#27257859874
12
#27324969145
1)
#27358523584
0%
#27442477194
1(
#27543150295
0)
#27593482151
1%
#27643900214
0(
#27845227415
1)
#27878781854
0%
#27962737466
1(
#28063410568
0)
#28113742423
1%
#28164160487
0(
#28365487688
1)
#28399042127
0%
#28482997741
1(
#28583670840
0)
#28634002696
1%
#28684420760
0(
#28885747961
1)
#28919302400
0%
#29003258014
1(
#29103931117
0)
#29154262970
1%
#29204681033
0(
#29406008235
1)
#29439562673
0%
#29523518284
1(
#29624191387
0)
#29674523242
1%
#29724941306
0(
#29892713867
02
#29959823137
1)
#29993377575
0%
#30077332989
1(
#30178006090
0)
#30228337946
1%
#30278756009
0(
#30480083209
1)
#30513637648
0%
#30597593261
1(
#30698266363
0)
#30748598218
1%
#30799016281
0(
#31000343482
1)
#31033897921
0%
#31117853533
1(
#31218526635
0)
#31268858491
1%
#31319276555
0(
#31520603755
1)
#31554158194
0%
#31638113805
1(
#31738786909
0)
#31789118764
1%
#31839536827
0(
#32040864029
1)
#32074418467
0%
#32158374081
1(
#32259047182
0)
#32309379038
1%
#32359797100
0(
#32527571464
12
#32594680934
1)
#32628235373
0%
#32712188783
1(
#32812861885
0)
#32863193739
1%
#32913611804
0(
#33114939005
1)
#33148493443
0%
#33232449056
1(
#33333122157
0)
#33383454013
1%
#33433872076
0(
#33635199277
1)
#33668753716
0%
#33752709328
1(
#33853382431
0)
#33903714286
1%
#33954132349
0(
#34155459550
1)
#34189013989
0%
#34272969600
1(
#34373642704
0)
#34423974559
1%
#34474392622
0(
#34675719823
1)
#34709274262
0%
#34793229873
1(
#34893902976
0)
#34944234832
1%
#34994652895
0(
#35162425457
02
#35229534724
1)
#35263089163
0%
#35347044576
1(
#35447717678
0)
#35498049533
1%
#35548467597
0(
#35749794798
1)
#35783349236
0%
#35867304850
1(
#35967977949
0)
#36018309807
1%
#36068727870
0(
#36270055070
1)
#36303609509
0%
#36387565122
1(
#36488238223
0)
#36521792864
1%
#36572210929
0(
#36773538128
1)
#36807092567
0%
#36891048180
1(
#36991721281
0)
#37042053137
1%
#37092471201
0(
#37293798401
1)
#37327352840
0%
#37411308453
1(
#37511981556
0)
#37562313411
1%
#37612731473
0(
#37780505837
12
#37847615107
1)
#37881169546
0%
#37965123156
1(
#38065796259
0)
#38116128113
1%
#38166546177
0(
#38367873376
1)
#38401427815
0%
#38485383427
1(
#38586056530
0)
#38636388385
1%
#38686806449
0(
#38888133650
1)
#38921688089
0%
#39005643701
1(
#39106316802
0)
#39156648660
1%
#39207066721
0(
#39408393922
1)
#39441948361
0%
#39525903974
1(
#39626577075
0)
#39676908932
1%
#39727326994
0(
#39928654195
1)
#39962208634
0%
#40046164246
1(
#40146837348
0)
#40197169203
1%
#40247587267
0(
#40415359830
02
#40482469098
1)
#40516023536
0%
#40599978950
1(
#40700652053
0)
#40750983907
1%
#40801401970
0(
#41002729171
1)
#41036283610
0%
#41120239222
1(
#41220912324
0)
#41271244180
1%
#41321662243
0(
#41522989444
1)
#41556543883
0%
#41640499494
1(
#41741172596
0)
#41791504453
1%
#41841922516
0(
#42043249717
1)
#42076804155
0%
#42160759767
1(
#42261432870
0)
#42311764725
1%
#42362182788
0(
#42563509988
1)
#42597064427
0%
#42681020040
1(
#42781693142
0)
#42832024997
1%
#42882443060
0(
#43050217424
12
#43117326693
1)
#43150881132
0%
#43234834742
1(
#43335507843
0)
#43385839700
1%
0(
1)
#43385926746
0%
1(
0)
#43386006307
1%
0(
1)
#43386093356
0%
1(
0)
#43386172915
1%
0(
1)
#43386259963
0%
1(
0)
#43386339522
1%
0(
1)
#43386426570
0%
1(
0)
#43386506132
1%
0(
02
1)
#43386593380
0%
1(
0)
#43386672739
1%
0(
1)
#43386759787
0%
1(
0)
#43386839346
1%
0(
1)
#43386926394
0%
1(
0)
#43387005954
1%
0(
1)
#43387093002
0%
1(
0)
#43387172563
1%
0(
1)
#43387259610
0%
1(
0)
#43387339170
1%
0(
12
1)
#43387428222
0%
1(
0)
#43387505780
1%
0(
1)
#43387592826
0%
1(
0)
#43387672386
1%
0(
1)
#43387759434
0%
1(
0)
#43387838993
1%
0(
1)
#43387926042
0%
1(
0)
#43388005602
1%
0(
1)
#43388092650
0%
1(
0)
#43388172210
1%
0(
02
1)
#43388259459
0%
1(
0)
#43388338817
1%
0(
1)
#43388425866
0%
1(
0)
#43388505426
1%
0(
1)
#43388592475
0%
1(
0)
#43388672032
1%
0(
1)
#43388759082
0%
1(
0)
#43388838640
1%
0(
1)
#43388925690
0%
1(
0)
#43389005251
1%
0(
12
1)
#43389094300
0%
1(
0)
#43389171859
1%
0(
1)
#43389258906
0%
1(
0)
#43389338464
1%
0(
1)
#43389425513
0%
1(
0)
#43389505073
1%
0(
1)
#43389592121
0%
1(
0)
#43389671685
1%
0(
1)
#43389758730
0%
1(
0)
#43389838289
1%
0(
02
1)
#43389925537
0%
1(
0)
#43390004896
1%
0(
1)
#43390091944
0%
1(
0)
#43390171505
1%
0(
1)
#43390258553
0%
1(
0)
#43390338114
1%
0(
1)
#43390425161
0%
1(
0)
#43390504720
1%
0(
1)
#43390591768
0%
1(
0)
#43390671330
1%
0(
12
1)
#43390760379
0%
1(
0)
#43390837936
1%
0(
1)
#43390924984
0%
1(
0)
#43391004546
1%
0(
1)
#43391091592
0%
1(
0)
#43391171152
1%
0(
1)
#43391258200
0%
1(
0)
#43391337761
1%
0(
1)
#43391424808
0%
1(
0)
#43391504367
1%
0(
02
1)
#43391591616
0%
1(
0)
#43391670976
1%
0(
1)
#43391758024
0%
1(
0)
#43391837583
1%
0(
1)
#43391924631
0%
1(
0)
#43392004190
1%
0(
1)
#43392091239
0%
1(
0)
#43392170796
1%
0(
1)
#43392257847
0%
1(
0)
#43392337406
1%
0(
12
1)
#43392426456
0%
1(
0)
#43392504012
1%
0(
1)
#43392591061
0%
1(
0)
#43392670621
1%
0(
1)
#43392757669
0%
1(
0)
#43392837230
1%
0(
1)
#43392924277
0%
1(
0)
#43393003837
1%
0(
1)
#43393090885
0%
1(
0)
#43393170445
1%
0(
02
1)
#43393257692
0%
1(
0)
#43393337052
1%
0(
1)
#43393424100
0%
1(
0)
#43393503660
1%
0(
1)
#43393590708
0%
1(
0)
#43393670268
1%
0(
1)
#43393757317
0%
1(
0)
#43393836876
1%
0(
1)
#43393923923
0%
1(
0)
#43394003484
1%
0(
12
1)
#43394092534
0%
1(
0)
#43394170092
1%
0(
1)
#43394257140
0%
1(
0)
#43394336700
1%
0(
1)
#43394423748
0%
1(
0)
#43394503307
1%
0(
1)
#43394590355
0%
1(
0)
#43394669916
1%
0(
1)
#43394756962
0%
1(
0)
#43394836523
1%
0(
02
1)
#43394923771
0%
1(
0)
#43395003131
1%
0(
1)
#43395090180
0%
1(
0)
#43395169739
1%
0(
1)
#43395256787
0%
1(
0)
#43395336346
1%
0(
1)
#43395423396
0%
1(
0)
#43395502956
1%
0(
1)
#43395590004
0%
1(
0)
#43395669563
1%
0(
12
1)
#43395758613
0%
#43429380577
1(
#43530053679
0)
#43580385535
1%
#43630803599
0(
#43832130800
1)
#43865685239
0%
#43949640851
1(
#44050313951
0)
#44100645807
1%
#44151063871
0(
#44352391071
1)
#44385945510
0%
#44469901123
1(
#44570574224
0)
#44620906080
1%
#44671324144
0(
#44872651344
1)
#44906205783
0%
#44990161395
1(
#45090834497
0)
#45141166353
1%
#45191584416
0(
#45392911618
1)
#45426466057
0%
#45510421668
1(
#45611094770
0)
#45661426626
1%
#45711844688
0(
#45879617252
02
#45946726520
1)
#45980280959
0%
#46064236371
1(
#46164909473
0)
#46215241330
1%
#46265659392
0(
#46466986592
1)
#46500541030
0%
#46584496645
1(
#46685169746
0)
#46735501601
1%
#46785919664
0(
#46987246865
1)
#47020801304
0%
#47104756917
1(
#47205430018
0)
#47255761874
1%
#47306179937
0(
#47507507138
1)
#47541061577
0%
#47625017188
1(
#47725690291
0)
#47776022147
1%
#47826440210
0(
#48027767411
1)
#48061321850
0%
#48145277463
1(
#48245950565
0)
#48296282419
1%
#48346700483
0(
#48514474847
12
#48581584116
1)
#48615138555
0%
#48699092165
1(
#48799765268
0)
#48850097123
1%
#48900515186
0(
#49101842387
1)
#49135396826
0%
#49219352438
1(
#49320025540
0)
#49370357396
1%
#49420775459
0(
#49622102660
1)
#49655657099
0%
#49739612711
1(
#49840285813
0)
#49890617668
1%
#49941035732
0(
#50142362932
1)
#50175917370
0%
#50259872985
1(
#50360546087
0)
#50410877941
1%
#50461296005
0(
#50662623205
1)
#50696177644
0%
#50780133257
1(
#50880806358
0)
#50931138214
1%
#50981556277
0(
#51149328841
02
#51216438108
1)
#51249992547
0%
#51333947960
1(
#51434621061
0)
#51484952917
1%
#51535370981
0(
#51736698181
1)
#51770252620
0%
#51854208232
1(
#51954881335
0)
#52005213190
1%
#52055631253
0(
#52256958454
1)
#52290512892
0%
#52374468506
1(
#52475141608
0)
#52525473462
1%
#52575891527
0(
#52777218727
1)
#52810773166
0%
#52894728782
1(
#52995401880
0)
#53045733736
1%
#53096151799
0(
#53297479000
1)
#53331033438
0%
#53414989049
1(
#53515662153
0)
#53565994008
1%
#53616412072
0(
#53784186434
12
#53851295706
1)
#53884850145
0%
#53968803754
1(
#54069476856
0)
#54119808711
1%
#54170226773
0(
#54371553976
1)
#54405108414
0%
#54489064026
1(
#54589737128
0)
#54640068982
1%
#54690487046
0(
#54891814248
1)
#54925368686
0%
#55009324296
1(
#55109997401
0)
#55160329256
1%
#55210747320
0(
#55412074520
1)
#55445628959
0%
#55529584571
1(
#55630257673
0)
#55680589528
1%
#55731007593
0(
#55932334793
1)
#55965889232
0%
#56049844844
1(
#56150517947
0)
#56200849803
1%
#56251267865
0(
#56419040427
02
#56486149696
1)
#56519704134
0%
#56603659548
1(
#56704332648
0)
#56754664505
1%
#56805082567
0(
#57006409770
1)
#57039964209
0%
#57123919820
1(
#57224592922
0)
#57274924778
1%
#57325342841
0(
#57526670043
1)
#57560224482
0%
#57644180094
1(
#57744853195
0)
#57795185050
1%
#57845603113
0(
#58046930315
1)
#58080484754
0%
#58164440365
1(
#58265113467
0)
#58315445324
1%
#58365863387
0(
#58567190588
1)
#58600745027
0%
#58684700640
1(
#58785373741
0)
#58835705596
1%
#58886123659
0(
#59053898023
12
#59121007294
1)
#59154561732
0%
#59238515341
1(
#59339188444
0)
#59389520300
1%
#59439938363
0(
#59641265563
1)
#59674820002
0%
#59758775614
1(
#59859448717
0)
#59909780572
1%
#59960198636
0(
#60161525836
1)
#60195080275
0%
#60279035888
1(
#60379708990
0)
#60430040846
1%
#60480458909
0(
#60681786110
1)
#60715340549
0%
#60799296161
1(
#60899969263
0)
#60950301120
1%
#61000719181
0(
#61202046383
1)
#61235600821
0%
#61319556435
1(
#61420229534
0)
#61470561392
1%
#61520979454
0(
#61688752017
02
#61755861286
1)
#61789415724
0%
#61873371138
1(
#61974044239
0)
#62024376094
1%
#62074794158
0(
#62276121358
1)
#62309675797
0%
#62393631409
1(
#62494304512
0)
#62544636366
1%
#62595054430
0(
#62796381630
1)
#62829936069
0%
#62913891683
1(
#63014564784
0)
#63064896640
1%
#63115314703
0(
#63316641904
1)
#63350196342
0%
#63434151955
1(
#63534825057
0)
#63585156913
1%
#63635574976
0(
#63836902176
1)
#63870456615
0%
#63954412228
1(
#64055085328
0)
#64105417185
1%
#64155835249
0(
#64323609611
12
#64390718882
1)
#64424273321
0%
#64508226930
1(
#64608900032
0)
#64659231888
1%
#64709649952
0(
#64910977151
1)
#64944531590
0%
1(
0)
#64978165580
1%
0(
1)
#64978252629
0%
1(
0)
#64978332188
1%
0(
1)
#64978419236
0%
1(
0)
#64978498796
1%
0(
1)
#64978585844
0%
1(
0)
#64978665404
1%
0(
02
1)
#64978752653
0%
1(
0)
#64978832013
1%
0(
1)
#64978919060
0%
1(
0)
#64978998620
1%
0(
1)
#64979085668
0%
1(
0)
#64979165227
1%
0(
1)
#64979252276
0%
1(
0)
#64979331836
1%
0(
1)
#64979418884
0%
1(
0)
#64979498444
1%
0(
12
1)
#64979587494
0%
1(
0)
#64979665052
1%
0(
1)
#64979752099
0%
1(
0)
#64979831659
1%
0(
1)
#64979918707
0%
1(
0)
#64979998266
1%
0(
1)
#64980085313
0%
1(
0)
#64980164874
1%
0(
1)
#64980251920
0%
1(
0)
#64980331482
1%
0(
02
1)
#64980418729
0%
1(
0)
#64980498089
1%
0(
1)
#64980585137
0%
1(
0)
#64980664698
1%
0(
1)
#64980751746
0%
1(
0)
#64980831305
1%
0(
1)
#64980918353
0%
1(
0)
#64980997913
1%
0(
1)
#64981084959
0%
1(
0)
#64981164520
1%
0(
12
1)
#64981253572
0%
1(
0)
#64981331128
1%
0(
1)
#64981418178
0%
1(
0)
#64981497738
1%
0(
1)
#64981584786
0%
1(
0)
#64981664344
1%
0(
1)
#64981751392
0%
1(
0)
#64981830953
1%
0(
1)
#64981918002
0%
1(
0)
#64981997560
1%
0(
02
1)
#64982084809
0%
1(
0)
#64982164169
1%
0(
1)
#64982251217
0%
1(
0)
#64982330777
1%
0(
1)
#64982417824
0%
1(
0)
#64982497385
1%
0(
1)
#64982584433
0%
1(
0)
#64982663993
1%
0(
1)
#64982751041
0%
1(
0)
#64982830599
1%
0(
12
1)
#64982919849
0%
1(
0)
#64982997207
1%
0(
1)
#64983084255
0%
1(
0)
#64983163816
1%
0(
1)
#64983250864
0%
1(
0)
#64983330423
1%
0(
1)
#64983417471
0%
1(
0)
#64983497031
1%
0(
1)
#64983584079
0%
1(
0)
#64983663639
1%
0(
02
1)
#64983750888
0%
1(
0)
#64983830247
1%
0(
1)
#64983917294
0%
1(
0)
#64983996856
1%
0(
1)
#64984083905
0%
1(
0)
#64984163465
1%
0(
1)
#64984250513
0%
1(
0)
#64984330072
1%
0(
1)
#64984417120
0%
1(
0)
#64984496680
1%
0(
12
1)
#64984585732
0%
1(
0)
#64984663287
1%
0(
1)
#64984750337
0%
1(
0)
#64984829896
1%
0(
1)
#64984916944
0%
1(
0)
#64984996503
1%
0(
1)
#64985083552
0%
1(
0)
#64985163110
1%
0(
1)
#64985250159
0%
1(
0)
#64985329719
1%
0(
02
1)
#64985416966
0%
1(
0)
#64985496326
1%
0(
1)
#64985583375
0%
1(
0)
#64985662935
1%
0(
1)
#64985749983
0%
1(
0)
#64985829543
1%
0(
1)
#64985916591
0%
1(
0)
#64985996150
1%
0(
1)
#64986083199
0%
1(
0)
#64986162758
1%
0(
12
1)
#64986251810
0%
1(
0)
#64986329367
1%
0(
1)
#64986416414
0%
1(
0)
#64986495974
1%
0(
1)
#64986583021
0%
1(
0)
#64986662581
1%
0(
1)
#64986749630
0%
1(
0)
#64986829190
1%
0(
1)
#64986916237
0%
1(
0)
#64986995798
1%
0(
02
1)
#64987083046
0%
1(
0)
#64987162406
1%
0(
1)
#64987249452
0%
1(
0)
#64987329013
1%
0(
1)
#64987416061
0%
1(
0)
#64987495620
1%
0(
1)
#64987582669
0%
1(
0)
#64987662228
1%
0(
1)
#64987749275
0%
1(
0)
#64987828834
1%
0(
12
1)
#64987917885
0%
1(
0)
#64987995443
1%
0(
1)
#64988082492
0%
#65021706457
1(
#65122379559
0)
#65172711415
1%
#65223129478
0(
#65424456680
1)
#65458011118
0%
#65541966731
1(
#65642639832
0)
#65692971688
1%
#65743389751
0(
#65944716953
1)
#65978271392
0%
